digraph "twoDegreesRelationshipsDiagram" {
  graph [
    rankdir="RL"
    bgcolor="#ffffff"
    label="\nGenerated by SchemaSpy"
    labeljust="l"
    nodesep="0.18"
    ranksep="0.46"
    fontname="Helvetica"
    fontsize="11"
    ration="compress"
  ];
  node [
    fontname="Helvetica"
    fontsize="11"
    shape="plaintext"
  ];
  edge [
    arrowsize="0.8"
  ];
  "command":"info_ti_uuid":w -> "info_ti":"elipses":e [arrowhead=none dir=back arrowtail=crowodot];
  "command":"user_id":w -> "expl_user":"id.type":e [arrowhead=none dir=back arrowtail=crowodot];
  "expl_user_password_history":"user_id":w -> "expl_user":"id.type":e [arrowhead=none dir=back arrowtail=crowodot];
  "group_command":"expl_user_id":w -> "expl_user":"id.type":e [arrowhead=none dir=back arrowtail=crowodot];
  "info_ti":"elipses":w -> "hierarchy_tree":"elipses":e [arrowhead=none dir=back arrowtail=crowodot];
  "notification_group_contact":"notification_group_id":w -> "notification_group":"elipses":e [arrowhead=none dir=back arrowtail=crowodot];
  "notification_group_contact":"user_id":w -> "expl_user":"id.type":e [arrowhead=none dir=back arrowtail=crowodot];
  "report_response_status":"elipses":w -> "report_sending_status":"id":e [arrowhead=none dir=back arrowtail=crowodot];
  "report_schedule":"user_id":w -> "expl_user":"id.type":e [arrowhead=none dir=back arrowtail=crowodot];
  "report_sending_status":"report_run_id":w -> "report_run":"elipses":e [arrowhead=none dir=back arrowtail=crowodot];
  "report_sending_status":"user_id":w -> "expl_user":"id.type":e [arrowhead=none dir=back arrowtail=crowodot];
  "user_balance_group":"balance_group_id":w -> "balance_group":"elipses":e [arrowhead=none dir=back arrowtail=crowodot];
  "user_balance_group":"user_id":w -> "expl_user":"id.type":e [arrowhead=none dir=back arrowtail=crowodot];
  "user_hierarchy_tree":"hierarchy_tree_uuid":w -> "hierarchy_tree":"elipses":e [arrowhead=none dir=back arrowtail=crowodot];
  "user_hierarchy_tree":"user_id":w -> "expl_user":"id.type":e [arrowhead=none dir=back arrowtail=crowodot];
  "user_role":"role_id":w -> "role":"elipses":e [arrowhead=none dir=back arrowtail=crowodot];
  "user_role":"user_id":w -> "expl_user":"id.type":e [arrowhead=none dir=back arrowtail=crowodot];
  "user_settings":"user_id":w -> "expl_user":"id.type":e [arrowhead=none dir=back arrowtail=crowodot];
  "balance_group" [
   label=<
    <TABLE BORDER="0" CELLBORDER="1" CELLSPACING="0" BGCOLOR="#ffffff">
      <TR><TD COLSPAN="3"  BGCOLOR="#f5f5f5"><TABLE BORDER="0" CELLSPACING="0"><TR><TD ALIGN="LEFT"><B>balance_group</B></TD><TD ALIGN="RIGHT">[table]</TD></TR></TABLE></TD></TR>
      <TR><TD PORT="elipses" COLSPAN="3" ALIGN="LEFT">...</TD></TR>
      <TR><TD ALIGN="LEFT" BGCOLOR="#ffffff">  </TD><TD ALIGN="RIGHT" BGCOLOR="#ffffff">4 rows</TD><TD ALIGN="RIGHT" BGCOLOR="#ffffff">2 &gt;</TD></TR>
    </TABLE>>
    URL="balance_group.html"
    target="_top"
    tooltip="balance_group"
  ];
  "command" [
   label=<
    <TABLE BORDER="0" CELLBORDER="1" CELLSPACING="0" BGCOLOR="#ffffff">
      <TR><TD COLSPAN="3"  BGCOLOR="#f5f5f5"><TABLE BORDER="0" CELLSPACING="0"><TR><TD ALIGN="LEFT"><B>command</B></TD><TD ALIGN="RIGHT">[table]</TD></TR></TABLE></TD></TR>
      <TR><TD PORT="id" COLSPAN="3" ALIGN="LEFT"><TABLE BORDER="0" CELLSPACING="0" ALIGN="LEFT"><TR ALIGN="LEFT"><TD ALIGN="LEFT" FIXEDSIZE="TRUE" WIDTH="15" HEIGHT="16"><IMG SRC="../../images/primaryKeys.png"/></TD><TD ALIGN="LEFT" FIXEDSIZE="TRUE" WIDTH="185" HEIGHT="16">id</TD></TR></TABLE></TD></TR>
      <TR><TD PORT="info_ti_uuid" COLSPAN="3" ALIGN="LEFT"><TABLE BORDER="0" CELLSPACING="0" ALIGN="LEFT"><TR ALIGN="LEFT"><TD ALIGN="LEFT" FIXEDSIZE="TRUE" WIDTH="15" HEIGHT="16"><IMG SRC="../../images/foreignKeys.png"/></TD><TD ALIGN="LEFT" FIXEDSIZE="TRUE" WIDTH="185" HEIGHT="16">info_ti_uuid</TD></TR></TABLE></TD></TR>
      <TR><TD PORT="user_id" COLSPAN="3" ALIGN="LEFT"><TABLE BORDER="0" CELLSPACING="0" ALIGN="LEFT"><TR ALIGN="LEFT"><TD ALIGN="LEFT" FIXEDSIZE="TRUE" WIDTH="15" HEIGHT="16"><IMG SRC="../../images/foreignKeys.png"/></TD><TD ALIGN="LEFT" FIXEDSIZE="TRUE" WIDTH="185" HEIGHT="16">user_id</TD></TR></TABLE></TD></TR>
      <TR><TD PORT="elipses" COLSPAN="3" ALIGN="LEFT">...</TD></TR>
      <TR><TD ALIGN="LEFT" BGCOLOR="#ffffff">&lt; 2</TD><TD ALIGN="RIGHT" BGCOLOR="#ffffff">109 rows</TD><TD ALIGN="RIGHT" BGCOLOR="#ffffff">  </TD></TR>
    </TABLE>>
    URL="command.html"
    target="_top"
    tooltip="command"
  ];
  "expl_user" [
   label=<
    <TABLE BORDER="2" CELLBORDER="1" CELLSPACING="0" BGCOLOR="#ffffff">
      <TR><TD COLSPAN="4"  BGCOLOR="#f5f5f5"><TABLE BORDER="0" CELLSPACING="0"><TR><TD ALIGN="LEFT"><B>expl_user</B></TD><TD ALIGN="RIGHT">[table]</TD></TR></TABLE></TD></TR>
      <TR><TD PORT="id" COLSPAN="2" ALIGN="LEFT"><TABLE BORDER="0" CELLSPACING="0" ALIGN="LEFT"><TR ALIGN="LEFT"><TD ALIGN="LEFT" FIXEDSIZE="TRUE" WIDTH="15" HEIGHT="16"><IMG SRC="../../images/primaryKeys.png"/></TD><TD ALIGN="LEFT" FIXEDSIZE="TRUE" WIDTH="160" HEIGHT="16">id</TD></TR></TABLE></TD><TD PORT="id.type" ALIGN="LEFT">int4[10]</TD></TR>
      <TR><TD PORT="user_name" COLSPAN="2" ALIGN="LEFT"><TABLE BORDER="0" CELLSPACING="0" ALIGN="LEFT"><TR ALIGN="LEFT"><TD ALIGN="LEFT" FIXEDSIZE="TRUE" WIDTH="15" HEIGHT="16"></TD><TD ALIGN="LEFT" FIXEDSIZE="TRUE" WIDTH="160" HEIGHT="16">user_name</TD></TR></TABLE></TD><TD PORT="user_name.type" ALIGN="LEFT">varchar[64]</TD></TR>
      <TR><TD PORT="password_hash" COLSPAN="2" ALIGN="LEFT"><TABLE BORDER="0" CELLSPACING="0" ALIGN="LEFT"><TR ALIGN="LEFT"><TD ALIGN="LEFT" FIXEDSIZE="TRUE" WIDTH="15" HEIGHT="16"></TD><TD ALIGN="LEFT" FIXEDSIZE="TRUE" WIDTH="160" HEIGHT="16">password_hash</TD></TR></TABLE></TD><TD PORT="password_hash.type" ALIGN="LEFT">varchar[255]</TD></TR>
      <TR><TD PORT="salt" COLSPAN="2" ALIGN="LEFT"><TABLE BORDER="0" CELLSPACING="0" ALIGN="LEFT"><TR ALIGN="LEFT"><TD ALIGN="LEFT" FIXEDSIZE="TRUE" WIDTH="15" HEIGHT="16"></TD><TD ALIGN="LEFT" FIXEDSIZE="TRUE" WIDTH="160" HEIGHT="16">salt</TD></TR></TABLE></TD><TD PORT="salt.type" ALIGN="LEFT">varchar[32]</TD></TR>
      <TR><TD PORT="password_create_date_time" COLSPAN="2" ALIGN="LEFT"><TABLE BORDER="0" CELLSPACING="0" ALIGN="LEFT"><TR ALIGN="LEFT"><TD ALIGN="LEFT" FIXEDSIZE="TRUE" WIDTH="15" HEIGHT="16"></TD><TD ALIGN="LEFT" FIXEDSIZE="TRUE" WIDTH="160" HEIGHT="16">password_create_date_time</TD></TR></TABLE></TD><TD PORT="password_create_date_time.type" ALIGN="LEFT">timestamp[29,6]</TD></TR>
      <TR><TD PORT="password_never_expires" COLSPAN="2" ALIGN="LEFT"><TABLE BORDER="0" CELLSPACING="0" ALIGN="LEFT"><TR ALIGN="LEFT"><TD ALIGN="LEFT" FIXEDSIZE="TRUE" WIDTH="15" HEIGHT="16"></TD><TD ALIGN="LEFT" FIXEDSIZE="TRUE" WIDTH="160" HEIGHT="16">password_never_expires</TD></TR></TABLE></TD><TD PORT="password_never_expires.type" ALIGN="LEFT">bool[1]</TD></TR>
      <TR><TD PORT="change_on_next_login" COLSPAN="2" ALIGN="LEFT"><TABLE BORDER="0" CELLSPACING="0" ALIGN="LEFT"><TR ALIGN="LEFT"><TD ALIGN="LEFT" FIXEDSIZE="TRUE" WIDTH="15" HEIGHT="16"></TD><TD ALIGN="LEFT" FIXEDSIZE="TRUE" WIDTH="160" HEIGHT="16">change_on_next_login</TD></TR></TABLE></TD><TD PORT="change_on_next_login.type" ALIGN="LEFT">bool[1]</TD></TR>
      <TR><TD PORT="email" COLSPAN="2" ALIGN="LEFT"><TABLE BORDER="0" CELLSPACING="0" ALIGN="LEFT"><TR ALIGN="LEFT"><TD ALIGN="LEFT" FIXEDSIZE="TRUE" WIDTH="15" HEIGHT="16"></TD><TD ALIGN="LEFT" FIXEDSIZE="TRUE" WIDTH="160" HEIGHT="16">email</TD></TR></TABLE></TD><TD PORT="email.type" ALIGN="LEFT">varchar[128]</TD></TR>
      <TR><TD PORT="phone" COLSPAN="2" ALIGN="LEFT"><TABLE BORDER="0" CELLSPACING="0" ALIGN="LEFT"><TR ALIGN="LEFT"><TD ALIGN="LEFT" FIXEDSIZE="TRUE" WIDTH="15" HEIGHT="16"></TD><TD ALIGN="LEFT" FIXEDSIZE="TRUE" WIDTH="160" HEIGHT="16">phone</TD></TR></TABLE></TD><TD PORT="phone.type" ALIGN="LEFT">varchar[255]</TD></TR>
      <TR><TD PORT="comment" COLSPAN="2" ALIGN="LEFT"><TABLE BORDER="0" CELLSPACING="0" ALIGN="LEFT"><TR ALIGN="LEFT"><TD ALIGN="LEFT" FIXEDSIZE="TRUE" WIDTH="15" HEIGHT="16"></TD><TD ALIGN="LEFT" FIXEDSIZE="TRUE" WIDTH="160" HEIGHT="16">comment</TD></TR></TABLE></TD><TD PORT="comment.type" ALIGN="LEFT">varchar[1024]</TD></TR>
      <TR><TD PORT="photo_mime" COLSPAN="2" ALIGN="LEFT"><TABLE BORDER="0" CELLSPACING="0" ALIGN="LEFT"><TR ALIGN="LEFT"><TD ALIGN="LEFT" FIXEDSIZE="TRUE" WIDTH="15" HEIGHT="16"></TD><TD ALIGN="LEFT" FIXEDSIZE="TRUE" WIDTH="160" HEIGHT="16">photo_mime</TD></TR></TABLE></TD><TD PORT="photo_mime.type" ALIGN="LEFT">varchar[255]</TD></TR>
      <TR><TD PORT="photo" COLSPAN="2" ALIGN="LEFT"><TABLE BORDER="0" CELLSPACING="0" ALIGN="LEFT"><TR ALIGN="LEFT"><TD ALIGN="LEFT" FIXEDSIZE="TRUE" WIDTH="15" HEIGHT="16"></TD><TD ALIGN="LEFT" FIXEDSIZE="TRUE" WIDTH="160" HEIGHT="16">photo</TD></TR></TABLE></TD><TD PORT="photo.type" ALIGN="LEFT">bytea[2147483647]</TD></TR>
      <TR><TD PORT="last_login" COLSPAN="2" ALIGN="LEFT"><TABLE BORDER="0" CELLSPACING="0" ALIGN="LEFT"><TR ALIGN="LEFT"><TD ALIGN="LEFT" FIXEDSIZE="TRUE" WIDTH="15" HEIGHT="16"></TD><TD ALIGN="LEFT" FIXEDSIZE="TRUE" WIDTH="160" HEIGHT="16">last_login</TD></TR></TABLE></TD><TD PORT="last_login.type" ALIGN="LEFT">timestamp[29,6]</TD></TR>
      <TR><TD PORT="bad_login_attempts" COLSPAN="2" ALIGN="LEFT"><TABLE BORDER="0" CELLSPACING="0" ALIGN="LEFT"><TR ALIGN="LEFT"><TD ALIGN="LEFT" FIXEDSIZE="TRUE" WIDTH="15" HEIGHT="16"></TD><TD ALIGN="LEFT" FIXEDSIZE="TRUE" WIDTH="160" HEIGHT="16">bad_login_attempts</TD></TR></TABLE></TD><TD PORT="bad_login_attempts.type" ALIGN="LEFT">int2[5]</TD></TR>
      <TR><TD PORT="is_blocked" COLSPAN="2" ALIGN="LEFT"><TABLE BORDER="0" CELLSPACING="0" ALIGN="LEFT"><TR ALIGN="LEFT"><TD ALIGN="LEFT" FIXEDSIZE="TRUE" WIDTH="15" HEIGHT="16"></TD><TD ALIGN="LEFT" FIXEDSIZE="TRUE" WIDTH="160" HEIGHT="16">is_blocked</TD></TR></TABLE></TD><TD PORT="is_blocked.type" ALIGN="LEFT">bool[1]</TD></TR>
      <TR><TD PORT="full_name" COLSPAN="2" ALIGN="LEFT"><TABLE BORDER="0" CELLSPACING="0" ALIGN="LEFT"><TR ALIGN="LEFT"><TD ALIGN="LEFT" FIXEDSIZE="TRUE" WIDTH="15" HEIGHT="16"></TD><TD ALIGN="LEFT" FIXEDSIZE="TRUE" WIDTH="160" HEIGHT="16">full_name</TD></TR></TABLE></TD><TD PORT="full_name.type" ALIGN="LEFT">varchar[255]</TD></TR>
      <TR><TD PORT="block_date_time" COLSPAN="2" ALIGN="LEFT"><TABLE BORDER="0" CELLSPACING="0" ALIGN="LEFT"><TR ALIGN="LEFT"><TD ALIGN="LEFT" FIXEDSIZE="TRUE" WIDTH="15" HEIGHT="16"></TD><TD ALIGN="LEFT" FIXEDSIZE="TRUE" WIDTH="160" HEIGHT="16">block_date_time</TD></TR></TABLE></TD><TD PORT="block_date_time.type" ALIGN="LEFT">timestamp[29,6]</TD></TR>
      <TR><TD PORT="is_disabled" COLSPAN="2" ALIGN="LEFT"><TABLE BORDER="0" CELLSPACING="0" ALIGN="LEFT"><TR ALIGN="LEFT"><TD ALIGN="LEFT" FIXEDSIZE="TRUE" WIDTH="15" HEIGHT="16"></TD><TD ALIGN="LEFT" FIXEDSIZE="TRUE" WIDTH="160" HEIGHT="16">is_disabled</TD></TR></TABLE></TD><TD PORT="is_disabled.type" ALIGN="LEFT">bool[1]</TD></TR>
      <TR><TD PORT="disable_start_date_time" COLSPAN="2" ALIGN="LEFT"><TABLE BORDER="0" CELLSPACING="0" ALIGN="LEFT"><TR ALIGN="LEFT"><TD ALIGN="LEFT" FIXEDSIZE="TRUE" WIDTH="15" HEIGHT="16"></TD><TD ALIGN="LEFT" FIXEDSIZE="TRUE" WIDTH="160" HEIGHT="16">disable_start_date_time</TD></TR></TABLE></TD><TD PORT="disable_start_date_time.type" ALIGN="LEFT">timestamp[29,6]</TD></TR>
      <TR><TD PORT="disable_date_time" COLSPAN="2" ALIGN="LEFT"><TABLE BORDER="0" CELLSPACING="0" ALIGN="LEFT"><TR ALIGN="LEFT"><TD ALIGN="LEFT" FIXEDSIZE="TRUE" WIDTH="15" HEIGHT="16"></TD><TD ALIGN="LEFT" FIXEDSIZE="TRUE" WIDTH="160" HEIGHT="16">disable_date_time</TD></TR></TABLE></TD><TD PORT="disable_date_time.type" ALIGN="LEFT">timestamp[29,6]</TD></TR>
      <TR><TD PORT="account_never_expires" COLSPAN="2" ALIGN="LEFT"><TABLE BORDER="0" CELLSPACING="0" ALIGN="LEFT"><TR ALIGN="LEFT"><TD ALIGN="LEFT" FIXEDSIZE="TRUE" WIDTH="15" HEIGHT="16"></TD><TD ALIGN="LEFT" FIXEDSIZE="TRUE" WIDTH="160" HEIGHT="16">account_never_expires</TD></TR></TABLE></TD><TD PORT="account_never_expires.type" ALIGN="LEFT">bool[1]</TD></TR>
      <TR><TD PORT="account_expire_period" COLSPAN="2" ALIGN="LEFT"><TABLE BORDER="0" CELLSPACING="0" ALIGN="LEFT"><TR ALIGN="LEFT"><TD ALIGN="LEFT" FIXEDSIZE="TRUE" WIDTH="15" HEIGHT="16"></TD><TD ALIGN="LEFT" FIXEDSIZE="TRUE" WIDTH="160" HEIGHT="16">account_expire_period</TD></TR></TABLE></TD><TD PORT="account_expire_period.type" ALIGN="LEFT">int2[5]</TD></TR>
      <TR><TD ALIGN="LEFT" BGCOLOR="#ffffff">&lt; 0</TD><TD ALIGN="RIGHT" BGCOLOR="#ffffff">7 rows</TD><TD ALIGN="RIGHT" BGCOLOR="#ffffff">10 &gt;</TD></TR>
    </TABLE>>
    URL="expl_user.html"
    target="_top"
    tooltip="expl_user"
  ];
  "expl_user_password_history" [
   label=<
    <TABLE BORDER="0" CELLBORDER="1" CELLSPACING="0" BGCOLOR="#ffffff">
      <TR><TD COLSPAN="3"  BGCOLOR="#f5f5f5"><TABLE BORDER="0" CELLSPACING="0"><TR><TD ALIGN="LEFT"><B>expl_user_password_history</B></TD><TD ALIGN="RIGHT">[table]</TD></TR></TABLE></TD></TR>
      <TR><TD PORT="id" COLSPAN="3" ALIGN="LEFT"><TABLE BORDER="0" CELLSPACING="0" ALIGN="LEFT"><TR ALIGN="LEFT"><TD ALIGN="LEFT" FIXEDSIZE="TRUE" WIDTH="15" HEIGHT="16"><IMG SRC="../../images/primaryKeys.png"/></TD><TD ALIGN="LEFT" FIXEDSIZE="TRUE" WIDTH="167" HEIGHT="16">id</TD></TR></TABLE></TD></TR>
      <TR><TD PORT="user_id" COLSPAN="3" ALIGN="LEFT"><TABLE BORDER="0" CELLSPACING="0" ALIGN="LEFT"><TR ALIGN="LEFT"><TD ALIGN="LEFT" FIXEDSIZE="TRUE" WIDTH="15" HEIGHT="16"><IMG SRC="../../images/foreignKeys.png"/></TD><TD ALIGN="LEFT" FIXEDSIZE="TRUE" WIDTH="167" HEIGHT="16">user_id</TD></TR></TABLE></TD></TR>
      <TR><TD PORT="elipses" COLSPAN="3" ALIGN="LEFT">...</TD></TR>
      <TR><TD ALIGN="LEFT" BGCOLOR="#ffffff">&lt; 1</TD><TD ALIGN="RIGHT" BGCOLOR="#ffffff">0 rows</TD><TD ALIGN="RIGHT" BGCOLOR="#ffffff">  </TD></TR>
    </TABLE>>
    URL="expl_user_password_history.html"
    target="_top"
    tooltip="expl_user_password_history"
  ];
  "group_command" [
   label=<
    <TABLE BORDER="0" CELLBORDER="1" CELLSPACING="0" BGCOLOR="#ffffff">
      <TR><TD COLSPAN="3"  BGCOLOR="#f5f5f5"><TABLE BORDER="0" CELLSPACING="0"><TR><TD ALIGN="LEFT"><B>group_command</B></TD><TD ALIGN="RIGHT">[table]</TD></TR></TABLE></TD></TR>
      <TR><TD PORT="id" COLSPAN="3" ALIGN="LEFT"><TABLE BORDER="0" CELLSPACING="0" ALIGN="LEFT"><TR ALIGN="LEFT"><TD ALIGN="LEFT" FIXEDSIZE="TRUE" WIDTH="15" HEIGHT="16"><IMG SRC="../../images/primaryKeys.png"/></TD><TD ALIGN="LEFT" FIXEDSIZE="TRUE" WIDTH="114" HEIGHT="16">id</TD></TR></TABLE></TD></TR>
      <TR><TD PORT="expl_user_id" COLSPAN="3" ALIGN="LEFT"><TABLE BORDER="0" CELLSPACING="0" ALIGN="LEFT"><TR ALIGN="LEFT"><TD ALIGN="LEFT" FIXEDSIZE="TRUE" WIDTH="15" HEIGHT="16"><IMG SRC="../../images/foreignKeys.png"/></TD><TD ALIGN="LEFT" FIXEDSIZE="TRUE" WIDTH="114" HEIGHT="16">expl_user_id</TD></TR></TABLE></TD></TR>
      <TR><TD PORT="elipses" COLSPAN="3" ALIGN="LEFT">...</TD></TR>
      <TR><TD ALIGN="LEFT" BGCOLOR="#ffffff">&lt; 1</TD><TD ALIGN="RIGHT" BGCOLOR="#ffffff">4 rows</TD><TD ALIGN="RIGHT" BGCOLOR="#ffffff">  </TD></TR>
    </TABLE>>
    URL="group_command.html"
    target="_top"
    tooltip="group_command"
  ];
  "hierarchy_tree" [
   label=<
    <TABLE BORDER="0" CELLBORDER="1" CELLSPACING="0" BGCOLOR="#ffffff">
      <TR><TD COLSPAN="3"  BGCOLOR="#f5f5f5"><TABLE BORDER="0" CELLSPACING="0"><TR><TD ALIGN="LEFT"><B>hierarchy_tree</B></TD><TD ALIGN="RIGHT">[table]</TD></TR></TABLE></TD></TR>
      <TR><TD PORT="elipses" COLSPAN="3" ALIGN="LEFT">...</TD></TR>
      <TR><TD ALIGN="LEFT" BGCOLOR="#ffffff">  </TD><TD ALIGN="RIGHT" BGCOLOR="#ffffff">24 rows</TD><TD ALIGN="RIGHT" BGCOLOR="#ffffff">3 &gt;</TD></TR>
    </TABLE>>
    URL="hierarchy_tree.html"
    target="_top"
    tooltip="hierarchy_tree"
  ];
  "info_ti" [
   label=<
    <TABLE BORDER="0" CELLBORDER="1" CELLSPACING="0" BGCOLOR="#ffffff">
      <TR><TD COLSPAN="3"  BGCOLOR="#f5f5f5"><TABLE BORDER="0" CELLSPACING="0"><TR><TD ALIGN="LEFT"><B>info_ti</B></TD><TD ALIGN="RIGHT">[table]</TD></TR></TABLE></TD></TR>
      <TR><TD PORT="elipses" COLSPAN="3" ALIGN="LEFT">...</TD></TR>
      <TR><TD ALIGN="LEFT" BGCOLOR="#ffffff">&lt; 1</TD><TD ALIGN="RIGHT" BGCOLOR="#ffffff">9 rows</TD><TD ALIGN="RIGHT" BGCOLOR="#ffffff">8 &gt;</TD></TR>
    </TABLE>>
    URL="info_ti.html"
    target="_top"
    tooltip="info_ti"
  ];
  "notification_group" [
   label=<
    <TABLE BORDER="0" CELLBORDER="1" CELLSPACING="0" BGCOLOR="#ffffff">
      <TR><TD COLSPAN="3"  BGCOLOR="#f5f5f5"><TABLE BORDER="0" CELLSPACING="0"><TR><TD ALIGN="LEFT"><B>notification_group</B></TD><TD ALIGN="RIGHT">[table]</TD></TR></TABLE></TD></TR>
      <TR><TD PORT="elipses" COLSPAN="3" ALIGN="LEFT">...</TD></TR>
      <TR><TD ALIGN="LEFT" BGCOLOR="#ffffff">  </TD><TD ALIGN="RIGHT" BGCOLOR="#ffffff">0 rows</TD><TD ALIGN="RIGHT" BGCOLOR="#ffffff">5 &gt;</TD></TR>
    </TABLE>>
    URL="notification_group.html"
    target="_top"
    tooltip="notification_group"
  ];
  "notification_group_contact" [
   label=<
    <TABLE BORDER="0" CELLBORDER="1" CELLSPACING="0" BGCOLOR="#ffffff">
      <TR><TD COLSPAN="3"  BGCOLOR="#f5f5f5"><TABLE BORDER="0" CELLSPACING="0"><TR><TD ALIGN="LEFT"><B>notification_group_contact</B></TD><TD ALIGN="RIGHT">[table]</TD></TR></TABLE></TD></TR>
      <TR><TD PORT="id" COLSPAN="3" ALIGN="LEFT"><TABLE BORDER="0" CELLSPACING="0" ALIGN="LEFT"><TR ALIGN="LEFT"><TD ALIGN="LEFT" FIXEDSIZE="TRUE" WIDTH="15" HEIGHT="16"><IMG SRC="../../images/primaryKeys.png"/></TD><TD ALIGN="LEFT" FIXEDSIZE="TRUE" WIDTH="154" HEIGHT="16">id</TD></TR></TABLE></TD></TR>
      <TR><TD PORT="notification_group_id" COLSPAN="3" ALIGN="LEFT"><TABLE BORDER="0" CELLSPACING="0" ALIGN="LEFT"><TR ALIGN="LEFT"><TD ALIGN="LEFT" FIXEDSIZE="TRUE" WIDTH="15" HEIGHT="16"><IMG SRC="../../images/foreignKeys.png"/></TD><TD ALIGN="LEFT" FIXEDSIZE="TRUE" WIDTH="154" HEIGHT="16">notification_group_id</TD></TR></TABLE></TD></TR>
      <TR><TD PORT="user_id" COLSPAN="3" ALIGN="LEFT"><TABLE BORDER="0" CELLSPACING="0" ALIGN="LEFT"><TR ALIGN="LEFT"><TD ALIGN="LEFT" FIXEDSIZE="TRUE" WIDTH="15" HEIGHT="16"><IMG SRC="../../images/foreignKeys.png"/></TD><TD ALIGN="LEFT" FIXEDSIZE="TRUE" WIDTH="154" HEIGHT="16">user_id</TD></TR></TABLE></TD></TR>
      <TR><TD PORT="elipses" COLSPAN="3" ALIGN="LEFT">...</TD></TR>
      <TR><TD ALIGN="LEFT" BGCOLOR="#ffffff">&lt; 2</TD><TD ALIGN="RIGHT" BGCOLOR="#ffffff">0 rows</TD><TD ALIGN="RIGHT" BGCOLOR="#ffffff">  </TD></TR>
    </TABLE>>
    URL="notification_group_contact.html"
    target="_top"
    tooltip="notification_group_contact"
  ];
  "report_response_status" [
   label=<
    <TABLE BORDER="0" CELLBORDER="1" CELLSPACING="0" BGCOLOR="#ffffff">
      <TR><TD COLSPAN="3"  BGCOLOR="#f5f5f5"><TABLE BORDER="0" CELLSPACING="0"><TR><TD ALIGN="LEFT"><B>report_response_status</B></TD><TD ALIGN="RIGHT">[table]</TD></TR></TABLE></TD></TR>
      <TR><TD PORT="elipses" COLSPAN="3" ALIGN="LEFT">...</TD></TR>
      <TR><TD ALIGN="LEFT" BGCOLOR="#ffffff">&lt; 1</TD><TD ALIGN="RIGHT" BGCOLOR="#ffffff">1 row</TD><TD ALIGN="RIGHT" BGCOLOR="#ffffff">  </TD></TR>
    </TABLE>>
    URL="report_response_status.html"
    target="_top"
    tooltip="report_response_status"
  ];
  "report_run" [
   label=<
    <TABLE BORDER="0" CELLBORDER="1" CELLSPACING="0" BGCOLOR="#ffffff">
      <TR><TD COLSPAN="3"  BGCOLOR="#f5f5f5"><TABLE BORDER="0" CELLSPACING="0"><TR><TD ALIGN="LEFT"><B>report_run</B></TD><TD ALIGN="RIGHT">[table]</TD></TR></TABLE></TD></TR>
      <TR><TD PORT="elipses" COLSPAN="3" ALIGN="LEFT">...</TD></TR>
      <TR><TD ALIGN="LEFT" BGCOLOR="#ffffff">&lt; 1</TD><TD ALIGN="RIGHT" BGCOLOR="#ffffff">27 rows</TD><TD ALIGN="RIGHT" BGCOLOR="#ffffff">2 &gt;</TD></TR>
    </TABLE>>
    URL="report_run.html"
    target="_top"
    tooltip="report_run"
  ];
  "report_schedule" [
   label=<
    <TABLE BORDER="0" CELLBORDER="1" CELLSPACING="0" BGCOLOR="#ffffff">
      <TR><TD COLSPAN="3"  BGCOLOR="#f5f5f5"><TABLE BORDER="0" CELLSPACING="0"><TR><TD ALIGN="LEFT"><B>report_schedule</B></TD><TD ALIGN="RIGHT">[table]</TD></TR></TABLE></TD></TR>
      <TR><TD PORT="id" COLSPAN="3" ALIGN="LEFT"><TABLE BORDER="0" CELLSPACING="0" ALIGN="LEFT"><TR ALIGN="LEFT"><TD ALIGN="LEFT" FIXEDSIZE="TRUE" WIDTH="15" HEIGHT="16"><IMG SRC="../../images/primaryKeys.png"/></TD><TD ALIGN="LEFT" FIXEDSIZE="TRUE" WIDTH="108" HEIGHT="16">id</TD></TR></TABLE></TD></TR>
      <TR><TD PORT="user_id" COLSPAN="3" ALIGN="LEFT"><TABLE BORDER="0" CELLSPACING="0" ALIGN="LEFT"><TR ALIGN="LEFT"><TD ALIGN="LEFT" FIXEDSIZE="TRUE" WIDTH="15" HEIGHT="16"><IMG SRC="../../images/foreignKeys.png"/></TD><TD ALIGN="LEFT" FIXEDSIZE="TRUE" WIDTH="108" HEIGHT="16">user_id</TD></TR></TABLE></TD></TR>
      <TR><TD PORT="elipses" COLSPAN="3" ALIGN="LEFT">...</TD></TR>
      <TR><TD ALIGN="LEFT" BGCOLOR="#ffffff">&lt; 1</TD><TD ALIGN="RIGHT" BGCOLOR="#ffffff">6 rows</TD><TD ALIGN="RIGHT" BGCOLOR="#ffffff">  </TD></TR>
    </TABLE>>
    URL="report_schedule.html"
    target="_top"
    tooltip="report_schedule"
  ];
  "report_sending_status" [
   label=<
    <TABLE BORDER="0" CELLBORDER="1" CELLSPACING="0" BGCOLOR="#ffffff">
      <TR><TD COLSPAN="3"  BGCOLOR="#f5f5f5"><TABLE BORDER="0" CELLSPACING="0"><TR><TD ALIGN="LEFT"><B>report_sending_status</B></TD><TD ALIGN="RIGHT">[table]</TD></TR></TABLE></TD></TR>
      <TR><TD PORT="id" COLSPAN="3" ALIGN="LEFT"><TABLE BORDER="0" CELLSPACING="0" ALIGN="LEFT"><TR ALIGN="LEFT"><TD ALIGN="LEFT" FIXEDSIZE="TRUE" WIDTH="15" HEIGHT="16"><IMG SRC="../../images/primaryKeys.png"/></TD><TD ALIGN="LEFT" FIXEDSIZE="TRUE" WIDTH="129" HEIGHT="16">id</TD></TR></TABLE></TD></TR>
      <TR><TD PORT="report_run_id" COLSPAN="3" ALIGN="LEFT"><TABLE BORDER="0" CELLSPACING="0" ALIGN="LEFT"><TR ALIGN="LEFT"><TD ALIGN="LEFT" FIXEDSIZE="TRUE" WIDTH="15" HEIGHT="16"><IMG SRC="../../images/foreignKeys.png"/></TD><TD ALIGN="LEFT" FIXEDSIZE="TRUE" WIDTH="129" HEIGHT="16">report_run_id</TD></TR></TABLE></TD></TR>
      <TR><TD PORT="user_id" COLSPAN="3" ALIGN="LEFT"><TABLE BORDER="0" CELLSPACING="0" ALIGN="LEFT"><TR ALIGN="LEFT"><TD ALIGN="LEFT" FIXEDSIZE="TRUE" WIDTH="15" HEIGHT="16"><IMG SRC="../../images/foreignKeys.png"/></TD><TD ALIGN="LEFT" FIXEDSIZE="TRUE" WIDTH="129" HEIGHT="16">user_id</TD></TR></TABLE></TD></TR>
      <TR><TD PORT="elipses" COLSPAN="3" ALIGN="LEFT">...</TD></TR>
      <TR><TD ALIGN="LEFT" BGCOLOR="#ffffff">&lt; 2</TD><TD ALIGN="RIGHT" BGCOLOR="#ffffff">1 row</TD><TD ALIGN="RIGHT" BGCOLOR="#ffffff">1 &gt;</TD></TR>
    </TABLE>>
    URL="report_sending_status.html"
    target="_top"
    tooltip="report_sending_status"
  ];
  "role" [
   label=<
    <TABLE BORDER="0" CELLBORDER="1" CELLSPACING="0" BGCOLOR="#ffffff">
      <TR><TD COLSPAN="3"  BGCOLOR="#f5f5f5"><TABLE BORDER="0" CELLSPACING="0"><TR><TD ALIGN="LEFT"><B>role</B></TD><TD ALIGN="RIGHT">[table]</TD></TR></TABLE></TD></TR>
      <TR><TD PORT="elipses" COLSPAN="3" ALIGN="LEFT">...</TD></TR>
      <TR><TD ALIGN="LEFT" BGCOLOR="#ffffff">  </TD><TD ALIGN="RIGHT" BGCOLOR="#ffffff">2 rows</TD><TD ALIGN="RIGHT" BGCOLOR="#ffffff">2 &gt;</TD></TR>
    </TABLE>>
    URL="role.html"
    target="_top"
    tooltip="role"
  ];
  "user_balance_group" [
   label=<
    <TABLE BORDER="0" CELLBORDER="1" CELLSPACING="0" BGCOLOR="#ffffff">
      <TR><TD COLSPAN="3"  BGCOLOR="#f5f5f5"><TABLE BORDER="0" CELLSPACING="0"><TR><TD ALIGN="LEFT"><B>user_balance_group</B></TD><TD ALIGN="RIGHT">[table]</TD></TR></TABLE></TD></TR>
      <TR><TD PORT="user_id" COLSPAN="3" ALIGN="LEFT"><TABLE BORDER="0" CELLSPACING="0" ALIGN="LEFT"><TR ALIGN="LEFT"><TD ALIGN="LEFT" FIXEDSIZE="TRUE" WIDTH="15" HEIGHT="16"><IMG SRC="../../images/foreignKeys.png"/></TD><TD ALIGN="LEFT" FIXEDSIZE="TRUE" WIDTH="117" HEIGHT="16">user_id</TD></TR></TABLE></TD></TR>
      <TR><TD PORT="balance_group_id" COLSPAN="3" ALIGN="LEFT"><TABLE BORDER="0" CELLSPACING="0" ALIGN="LEFT"><TR ALIGN="LEFT"><TD ALIGN="LEFT" FIXEDSIZE="TRUE" WIDTH="15" HEIGHT="16"><IMG SRC="../../images/foreignKeys.png"/></TD><TD ALIGN="LEFT" FIXEDSIZE="TRUE" WIDTH="117" HEIGHT="16">balance_group_id</TD></TR></TABLE></TD></TR>
      <TR><TD ALIGN="LEFT" BGCOLOR="#ffffff">&lt; 2</TD><TD ALIGN="RIGHT" BGCOLOR="#ffffff">3 rows</TD><TD ALIGN="RIGHT" BGCOLOR="#ffffff">  </TD></TR>
    </TABLE>>
    URL="user_balance_group.html"
    target="_top"
    tooltip="user_balance_group"
  ];
  "user_hierarchy_tree" [
   label=<
    <TABLE BORDER="0" CELLBORDER="1" CELLSPACING="0" BGCOLOR="#ffffff">
      <TR><TD COLSPAN="3"  BGCOLOR="#f5f5f5"><TABLE BORDER="0" CELLSPACING="0"><TR><TD ALIGN="LEFT"><B>user_hierarchy_tree</B></TD><TD ALIGN="RIGHT">[table]</TD></TR></TABLE></TD></TR>
      <TR><TD PORT="user_id" COLSPAN="3" ALIGN="LEFT"><TABLE BORDER="0" CELLSPACING="0" ALIGN="LEFT"><TR ALIGN="LEFT"><TD ALIGN="LEFT" FIXEDSIZE="TRUE" WIDTH="15" HEIGHT="16"><IMG SRC="../../images/foreignKeys.png"/></TD><TD ALIGN="LEFT" FIXEDSIZE="TRUE" WIDTH="114" HEIGHT="16">user_id</TD></TR></TABLE></TD></TR>
      <TR><TD PORT="hierarchy_tree_uuid" COLSPAN="3" ALIGN="LEFT"><TABLE BORDER="0" CELLSPACING="0" ALIGN="LEFT"><TR ALIGN="LEFT"><TD ALIGN="LEFT" FIXEDSIZE="TRUE" WIDTH="15" HEIGHT="16"><IMG SRC="../../images/foreignKeys.png"/></TD><TD ALIGN="LEFT" FIXEDSIZE="TRUE" WIDTH="114" HEIGHT="16">hierarchy_tree_uuid</TD></TR></TABLE></TD></TR>
      <TR><TD ALIGN="LEFT" BGCOLOR="#ffffff">&lt; 2</TD><TD ALIGN="RIGHT" BGCOLOR="#ffffff">50 rows</TD><TD ALIGN="RIGHT" BGCOLOR="#ffffff">  </TD></TR>
    </TABLE>>
    URL="user_hierarchy_tree.html"
    target="_top"
    tooltip="user_hierarchy_tree"
  ];
  "user_role" [
   label=<
    <TABLE BORDER="0" CELLBORDER="1" CELLSPACING="0" BGCOLOR="#ffffff">
      <TR><TD COLSPAN="3"  BGCOLOR="#f5f5f5"><TABLE BORDER="0" CELLSPACING="0"><TR><TD ALIGN="LEFT"><B>user_role</B></TD><TD ALIGN="RIGHT">[table]</TD></TR></TABLE></TD></TR>
      <TR><TD PORT="user_id" COLSPAN="3" ALIGN="LEFT"><TABLE BORDER="0" CELLSPACING="0" ALIGN="LEFT"><TR ALIGN="LEFT"><TD ALIGN="LEFT" FIXEDSIZE="TRUE" WIDTH="15" HEIGHT="16"><IMG SRC="../../images/primaryKeys.png"/></TD><TD ALIGN="LEFT" FIXEDSIZE="TRUE" WIDTH="54" HEIGHT="16">user_id</TD></TR></TABLE></TD></TR>
      <TR><TD PORT="role_id" COLSPAN="3" ALIGN="LEFT"><TABLE BORDER="0" CELLSPACING="0" ALIGN="LEFT"><TR ALIGN="LEFT"><TD ALIGN="LEFT" FIXEDSIZE="TRUE" WIDTH="15" HEIGHT="16"><IMG SRC="../../images/primaryKeys.png"/></TD><TD ALIGN="LEFT" FIXEDSIZE="TRUE" WIDTH="54" HEIGHT="16">role_id</TD></TR></TABLE></TD></TR>
      <TR><TD ALIGN="LEFT" BGCOLOR="#ffffff">&lt; 2</TD><TD ALIGN="RIGHT" BGCOLOR="#ffffff">7 rows</TD><TD ALIGN="RIGHT" BGCOLOR="#ffffff">  </TD></TR>
    </TABLE>>
    URL="user_role.html"
    target="_top"
    tooltip="user_role"
  ];
  "user_settings" [
   label=<
    <TABLE BORDER="0" CELLBORDER="1" CELLSPACING="0" BGCOLOR="#ffffff">
      <TR><TD COLSPAN="3"  BGCOLOR="#f5f5f5"><TABLE BORDER="0" CELLSPACING="0"><TR><TD ALIGN="LEFT"><B>user_settings</B></TD><TD ALIGN="RIGHT">[table]</TD></TR></TABLE></TD></TR>
      <TR><TD PORT="id" COLSPAN="3" ALIGN="LEFT"><TABLE BORDER="0" CELLSPACING="0" ALIGN="LEFT"><TR ALIGN="LEFT"><TD ALIGN="LEFT" FIXEDSIZE="TRUE" WIDTH="15" HEIGHT="16"><IMG SRC="../../images/primaryKeys.png"/></TD><TD ALIGN="LEFT" FIXEDSIZE="TRUE" WIDTH="78" HEIGHT="16">id</TD></TR></TABLE></TD></TR>
      <TR><TD PORT="user_id" COLSPAN="3" ALIGN="LEFT"><TABLE BORDER="0" CELLSPACING="0" ALIGN="LEFT"><TR ALIGN="LEFT"><TD ALIGN="LEFT" FIXEDSIZE="TRUE" WIDTH="15" HEIGHT="16"><IMG SRC="../../images/foreignKeys.png"/></TD><TD ALIGN="LEFT" FIXEDSIZE="TRUE" WIDTH="78" HEIGHT="16">user_id</TD></TR></TABLE></TD></TR>
      <TR><TD PORT="elipses" COLSPAN="3" ALIGN="LEFT">...</TD></TR>
      <TR><TD ALIGN="LEFT" BGCOLOR="#ffffff">&lt; 1</TD><TD ALIGN="RIGHT" BGCOLOR="#ffffff">294 rows</TD><TD ALIGN="RIGHT" BGCOLOR="#ffffff">  </TD></TR>
    </TABLE>>
    URL="user_settings.html"
    target="_top"
    tooltip="user_settings"
  ];
}
